<svg width="23" height="28" viewBox="0 0 23 28" fill="none" xmlns="http://www.w3.org/2000/svg">
<path d="M15.2982 6.18137V4.31187H15.816C16.1233 4.31187 16.3728 4.06255 16.3728 3.75547V0.556403C16.3728 0.249319 16.1233 0 15.816 0H7.77695C7.46967 0 7.22019 0.249319 7.22019 0.556403V3.75547C7.22019 4.06255 7.46947 4.31187 7.77695 4.31187H8.29457V6.17581C7.07202 6.58135 5.92852 7.19512 4.91532 7.98953L3.51241 6.58751L3.85763 6.24251C4.05745 6.00947 4.03023 5.65772 3.79685 5.45803C3.58868 5.27937 3.28081 5.27937 3.07265 5.45803L2.33217 6.21472L0.979312 7.55004L0.194335 8.33453C-0.038854 8.53422 -0.066066 8.88577 0.133753 9.11901C0.333573 9.35205 0.685343 9.37944 0.91873 9.17955C0.940381 9.16129 0.961038 9.14065 0.979312 9.11901L1.37458 8.72399L2.8055 10.1538C-0.873289 15.1205 0.172685 22.1269 5.14255 25.8033C10.1124 29.4798 17.1232 28.4345 20.802 23.4678C24.4807 18.501 23.4348 11.4947 18.4649 7.81822C17.5034 7.10699 16.4343 6.55455 15.2982 6.18137ZM8.3337 1.11281H15.2593V3.19907H8.3337V1.11281ZM14.1847 4.31187V5.86972C12.6119 5.51916 10.9808 5.51916 9.40808 5.86972V4.31187H14.1847ZM2.15956 7.93931L2.71631 7.3831L3.94661 8.61263L3.38986 9.16903L2.15956 7.93931ZM11.7964 26.8949C6.22189 26.8983 1.70093 22.3845 1.69755 16.8136C1.69477 11.2426 6.21077 6.72427 11.7853 6.7209C17.353 6.71812 21.872 11.2213 21.8843 16.7858C21.8902 22.3605 17.3748 26.8854 11.7964 26.8949Z" fill="#FDB838"/>
<path d="M17.5527 11.0551C14.3822 7.89374 9.24929 7.89374 6.0788 11.0551C2.91823 14.2248 2.91823 19.3523 6.0788 22.522C9.25048 25.6806 14.3812 25.6806 17.5527 22.522C20.7161 19.3535 20.7161 14.2238 17.5527 11.0551ZM17.0129 17.3423H18.7943C18.6746 18.8171 18.09 20.2158 17.1241 21.3369L15.8771 20.1241C15.6439 19.9244 15.2919 19.9516 15.0921 20.1846C14.9134 20.3929 14.9134 20.7005 15.0921 20.9086L16.3502 22.1659C13.7299 24.4103 9.86285 24.4103 7.24236 22.1659L8.50067 20.9086C8.71717 20.6904 8.71598 20.3377 8.49769 20.1213C8.27959 19.9049 7.92663 19.9059 7.70993 20.1241L6.45182 21.3814C5.48589 20.2605 4.90133 18.8616 4.78156 17.3867H6.56305C6.87053 17.3867 7.11981 17.1374 7.11981 16.8303C7.11981 16.5232 6.87053 16.2739 6.56305 16.2739H4.78156C4.90133 14.7991 5.48589 13.4002 6.45182 12.2793L7.70993 13.5366C7.90995 13.7696 8.26172 13.797 8.4949 13.5971C8.72829 13.3974 8.7555 13.0459 8.55569 12.8126C8.53721 12.791 8.51675 12.7704 8.4949 12.7521L7.2368 11.4948C8.35904 10.5299 9.75877 9.94527 11.234 9.82557V11.6059C11.234 11.913 11.4835 12.1623 11.7907 12.1623C12.0982 12.1623 12.3475 11.913 12.3475 11.6059V9.82557C13.8235 9.94467 15.223 10.5295 16.3449 11.4948L15.0866 12.7521C14.8534 12.9518 14.8262 13.3035 15.026 13.5366C15.2258 13.7696 15.5776 13.797 15.811 13.5971C15.8326 13.5789 15.8533 13.5582 15.8715 13.5366L17.1298 12.2793C18.0958 13.4002 18.6803 14.7989 18.7999 16.2739H17.0184C16.7111 16.2739 16.4617 16.5232 16.4617 16.8303C16.4617 17.1374 16.7109 17.3867 17.0184 17.3867L17.0129 17.3423Z" fill="#FDB838"/>
<path d="M11.7963 15.1165C11.081 15.1144 10.4407 15.5588 10.193 16.2294H8.33361C8.02613 16.2294 7.77686 16.4785 7.77686 16.7858C7.77686 17.0928 8.02613 17.3422 8.33361 17.3422H10.193C10.482 18.2366 11.4423 18.7279 12.3375 18.4393C13.2328 18.1505 13.7242 17.1907 13.4354 16.296C13.2059 15.5866 12.5417 15.1088 11.7963 15.1165ZM11.7963 17.4144C11.4705 17.4138 11.2068 17.149 11.2074 16.8235C11.208 16.4979 11.4729 16.2343 11.7987 16.2349C12.1087 16.2355 12.366 16.4763 12.386 16.7858C12.3981 17.1111 12.1443 17.3848 11.8185 17.3971C11.8108 17.3977 11.8036 17.3977 11.7957 17.3977V17.4144H11.7963Z" fill="#FDB838"/>
</svg>
