<svg width="9" height="16" viewBox="0 0 9 16" fill="none" xmlns="http://www.w3.org/2000/svg">
<path d="M8.81012 7.56094L1.10229 0.180933C0.849749 -0.0607219 0.440885 -0.0603157 0.18877 0.182183C-0.06315 0.424651 -0.062499 0.817431 0.190072 1.05927L7.43911 8.00003L0.189811 14.9408C-0.0627269 15.1826 -0.0633779 15.5752 0.188509 15.8177C0.314892 15.9392 0.480463 16 0.646033 16C0.81118 16 0.9761 15.9396 1.10225 15.8189L8.81012 8.43909C8.93175 8.3229 9 8.16478 9 8.00003C9 7.83528 8.93155 7.67734 8.81012 7.56094Z" fill="#1F1F1F"/>
</svg>
